…
    ## Parsed with column specification:
    ## cols(
    ##   subject = col_double(),
    ##   timepoint = col_double(),
    ##   read_count = col_double()
    ## )

``` r
phage_counts
```

    ## # A tibble: 151,065 x 6
    ##    subject arm   timepoint query               tax_id parent_tax_id
    ##      <dbl> <chr>     <dbl> <chr>                <dbl>         <dbl>
    ##  1      10 P             0 SRR5580239.1195243   38018         12333
    ##  2      10 P             0 SRR5580237.5787515  754039        196896
    ##  3      10 P             0 SRR5580233.2454247 1401669        196894
    ##  4      10 P             0 SRR5580236.759656  1555202        196896
    ##  5      10 P             0 SRR5580238.2213536  571950         12333
    ##  6      10 P             0 SRR5580236.979355  1289598       1758253
    ##  7      10 P             0 SRR5580237.6405085 1084719        686598
    ##  8      10 P             0 SRR5580237.8850639   38018         12333
    ##  9      10 P             0 SRR5580233.2634354   38018         12333
    ## 10      10 P             0 SRR5580237.5364855  879630        329380
    ## # … with 151,055 more rows

``` r
library_size
```

    ## # A tibble: 118 x 3
    ##    subject timepoint read_count
    ##      <dbl>     <dbl>      <dbl>
    ##  1      10         0   15583005
    ##  2      10         2   15354487
    ##  3      10         4   15453835
    ##  4      11         0   12510331
    ##  5      11         2   13760572
    ##  6      11         4   13065700
    ##  7      12         0   13119084
    ##  8      12         2   15294197
    ##  9      12         4   10398890
    ## 10      13         0   15085520
    ## # … with 108 more rows
…
``` r
table5 <- phage_counts %>%
  group_by(arm, subject, timepoint) %>%
  count(parent_tax_id) %>%
    summarise(n = n())
table5
```

    ## # A tibble: 108 x 4
    ## # Groups:   arm, subject [36]
    ##    arm   subject timepoint     n
    ##    <chr> <chr>       <dbl> <int>
    ##  1 M     11              0   133
    ##  2 M     11              2   134
    ##  3 M     11              4   141
    ##  4 M     12              0    81
    ##  5 M     12              2   104
    ##  6 M     12              4    87
    ##  7 M     13              0    65
    ##  8 M     13              2    98
    ##  9 M     13              4   102
    ## 10 M     15              0    87
    ## # … with 98 more rows
…
